%YAML 1.1
%TAG !u! tag:unity3d.com,2011:
--- !u!29 &1
OcclusionCullingSettings:
  m_ObjectHideFlags: 0
  serializedVersion: 2
  m_OcclusionBakeSettings:
    smallestOccluder: 5
    smallestHole: 0.25
    backfaceThreshold: 100
  m_SceneGUID: 00000000000000000000000000000000
  m_OcclusionCullingData: {fileID: 0}
--- !u!104 &2
RenderSettings:
  m_ObjectHideFlags: 0
  serializedVersion: 9
  m_Fog: 1
  m_FogColor: {r: 0.44852942, g: 0.40777057, b: 0.23745675, a: 1}
  m_FogMode: 1
  m_FogDensity: 0.1
  m_LinearFogStart: 0
  m_LinearFogEnd: 172.9
  m_AmbientSkyColor: {r: 0.13103448, g: 0.13103448, b: 0.13103448, a: 1}
  m_AmbientEquatorColor: {r: 0, g: 0, b: 0, a: 1}
  m_AmbientGroundColor: {r: 0, g: 0, b: 0, a: 1}
  m_AmbientIntensity: 1
  m_AmbientMode: 0
  m_SubtractiveShadowColor: {r: 0.42, g: 0.478, b: 0.627, a: 1}
  m_SkyboxMaterial: {fileID: 2100000, guid: 9ba05f538ee36044da5cd2a4f14a8b18, type: 2}
  m_HaloStrength: 0.5
  m_FlareStrength: 1
  m_FlareFadeSpeed: 3
  m_HaloTexture: {fileID: 0}
  m_SpotCookie: {fileID: 10001, guid: 0000000000000000e000000000000000, type: 0}
  m_DefaultReflectionMode: 0
  m_DefaultReflectionResolution: 128
  m_ReflectionBounces: 1
  m_ReflectionIntensity: 1
  m_CustomReflection: {fileID: 0}
  m_Sun: {fileID: 0}
  m_IndirectSpecularColor: {r: 0, g: 0, b: 0, a: 1}
  m_UseRadianceAmbientProbe: 0
--- !u!157 &4
LightmapSettings:
  m_ObjectHideFlags: 0
  serializedVersion: 12
  m_GIWorkflowMode: 1
  m_GISettings:
    serializedVersion: 2
    m_BounceScale: 1
    m_IndirectOutputScale: 1
    m_AlbedoBoost: 1
    m_EnvironmentLightingMode: 0
    m_EnableBakedLightmaps: 1
    m_EnableRealtimeLightmaps: 0
  m_LightmapEditorSettings:
    serializedVersion: 12
    m_Resolution: 4
    m_BakeResolution: 40
    m_AtlasSize: 1024
    m_AO: 0
    m_AOMaxDistance: 1
    m_CompAOExponent: 1
    m_CompAOExponentDirect: 0.5
    m_ExtractAmbientOcclusion: 0
    m_Padding: 2
    m_LightmapParameters: {fileID: 15201, guid: 0000000000000000f000000000000000, type: 0}
    m_LightmapsBakeMode: 1
    m_TextureCompression: 1
    m_FinalGather: 0
    m_FinalGatherFiltering: 0
    m_FinalGatherRayCount: 128
    m_ReflectionCompression: 2
    m_MixedBakeMode: 0
    m_BakeBackend: 0
    m_PVRSampling: 1
    m_PVRDirectSampleCount: 32
    m_PVRSampleCount: 500
    m_PVRBounces: 2
    m_PVREnvironmentSampleCount: 500
    m_PVREnvironmentReferencePointCount: 2048
    m_PVRFilteringMode: 2
    m_PVRDenoiserTypeDirect: 0
    m_PVRDenoiserTypeIndirect: 0
    m_PVRDenoiserTypeAO: 0
    m_PVRFilterTypeDirect: 0
    m_PVRFilterTypeIndirect: 0
    m_PVRFilterTypeAO: 0
    m_PVREnvironmentMIS: 0
    m_PVRCulling: 1
    m_PVRFilteringGaussRadiusDirect: 1
    m_PVRFilteringGaussRadiusIndirect: 5
    m_PVRFilteringGaussRadiusAO: 2
    m_PVRFilteringAtrousPositionSigmaDirect: 0.5
    m_PVRFilteringAtrousPositionSigmaIndirect: 2
    m_PVRFilteringAtrousPositionSigmaAO: 1
    m_ExportTrainingData: 0
    m_TrainingDataDestination: TrainingData
    m_LightProbeSampleCountMultiplier: 4
  m_LightingDataAsset: {fileID: 112000002, guid: 73f637d2d86cca9489208c9847362bf1, type: 2}
  m_LightingSettings: {fileID: 11457348}
--- !u!196 &5
NavMeshSettings:
  serializedVersion: 2
  m_ObjectHideFlags: 0
  m_BuildSettings:
    serializedVersion: 2
    agentTypeID: 0
    agentRadius: 0.5
    agentHeight: 2
    agentSlope: 45
    agentClimb: 0.4
    ledgeDropHeight: 0
    maxJumpAcrossDistance: 0
    minRegionArea: 2
    manualCellSize: 0
    cellSize: 0.16666666
    manualTileSize: 0
    tileSize: 256
    accuratePlacement: 0
    maxJobWorkers: 0
    preserveTilesOutsideBounds: 0
    debug:
      m_Flags: 0
  m_NavMeshData: {fileID: 0}
--- !u!850595691 &11457348
LightingSettings:
  m_ObjectHideFlags: 0
  m_CorrespondingSourceObject: {fileID: 0}
  m_PrefabInstance: {fileID: 0}
  m_PrefabAsset: {fileID: 0}
  m_Name: Settings.lighting
  serializedVersion: 3
  m_GIWorkflowMode: 1
  m_EnableBakedLightmaps: 1
  m_EnableRealtimeLightmaps: 0
  m_RealtimeEnvironmentLighting: 1
  m_BounceScale: 1
  m_AlbedoBoost: 1
  m_IndirectOutputScale: 1
  m_UsingShadowmask: 0
  m_BakeBackend: 0
  m_LightmapMaxSize: 1024
  m_BakeResolution: 40
  m_Padding: 2
  m_TextureCompression: 1
  m_AO: 0
  m_AOMaxDistance: 1
  m_CompAOExponent: 1
  m_CompAOExponentDirect: 0.5
  m_ExtractAO: 0
  m_MixedBakeMode: 0
  m_LightmapsBakeMode: 1
  m_FilterMode: 1
  m_LightmapParameters: {fileID: 15201, guid: 0000000000000000f000000000000000, type: 0}
  m_ExportTrainingData: 0
  m_TrainingDataDestination: TrainingData
  m_RealtimeResolution: 4
  m_ForceWhiteAlbedo: 0
  m_ForceUpdates: 0
  m_FinalGather: 0
  m_FinalGatherRayCount: 128
  m_FinalGatherFiltering: 0
  m_PVRCulling: 1
  m_PVRSampling: 1
  m_PVRDirectSampleCount: 32
  m_PVRSampleCount: 500
  m_PVREnvironmentSampleCount: 500
  m_PVREnvironmentReferencePointCount: 2048
  m_LightProbeSampleCountMultiplier: 4
  m_PVRBounces: 2
  m_PVRMinBounces: 2
  m_PVREnvironmentMIS: 0
  m_PVRFilteringMode: 2
  m_PVRDenoiserTypeDirect: 0
  m_PVRDenoiserTypeIndirect: 0
  m_PVRDenoiserTypeAO: 0
  m_PVRFilterTypeDirect: 0
  m_PVRFilterTypeIndirect: 0
  m_PVRFilterTypeAO: 0
  m_PVRFilteringGaussRadiusDirect: 1
  m_PVRFilteringGaussRadiusIndirect: 5
  m_PVRFilteringGaussRadiusAO: 2
  m_PVRFilteringAtrousPositionSigmaDirect: 0.5
  m_PVRFilteringAtrousPositionSigmaIndirect: 2
  m_PVRFilteringAtrousPositionSigmaAO: 1
--- !u!114 &21591210 stripped
MonoBehaviour:
  m_CorrespondingSourceObject: {fileID: 114036040233595794, guid: ed022c6eaaa372f498c83d69665e2adc, type: 3}
  m_PrefabInstance: {fileID: 319190451}
  m_PrefabAsset: {fileID: 0}
  m_GameObject: {fileID: 0}
  m_Enabled: 1
  m_EditorHideFlags: 0
  m_Script: {fileID: 11500000, guid: 5f7201a12d95ffc409449d95f23cf332, type: 3}
  m_Name: 
  m_EditorClassIdentifier: 
--- !u!114 &165323091 stripped
MonoBehaviour:
  m_CorrespondingSourceObject: {fileID: 114272391833239024, guid: ed022c6eaaa372f498c83d69665e2adc, type: 3}
  m_PrefabInstance: {fileID: 319190451}
  m_PrefabAsset: {fileID: 0}
  m_GameObject: {fileID: 0}
  m_Enabled: 1
  m_EditorHideFlags: 0
  m_Script: {fileID: 11500000, guid: 67db9e8f0e2ae9c40bc1e2b64352a6b4, type: 3}
  m_Name: 
  m_EditorClassIdentifier: 
--- !u!1001 &319190451
PrefabInstance:
  m_ObjectHideFlags: 0
  serializedVersion: 2
  m_Modification:
    m_TransformParent: {fileID: 0}
    m_Modifications:
    - target: {fileID: 1217888063913076, guid: ed022c6eaaa372f498c83d69665e2adc, type: 3}
      propertyPath: m_IsActive
      value: 0
      objectReference: {fileID: 0}
    - target: {fileID: 1619794282622920, guid: ed022c6eaaa372f498c83d69665e2adc, type: 3}
      propertyPath: m_IsActive
      value: 1
      objectReference: {fileID: 0}
    - target: {fileID: 4632753293960446, guid: ed022c6eaaa372f498c83d69665e2adc, type: 3}
      propertyPath: m_RootOrder
      value: 1
      objectReference: {fileID: 0}
    - target: {fileID: 4632753293960446, guid: ed022c6eaaa372f498c83d69665e2adc, type: 3}
      propertyPath: m_LocalPosition.x
      value: 0
      objectReference: {fileID: 0}
    - target: {fileID: 4632753293960446, guid: ed022c6eaaa372f498c83d69665e2adc, type: 3}
      propertyPath: m_LocalPosition.y
      value: 0
      objectReference: {fileID: 0}
    - target: {fileID: 4632753293960446, guid: ed022c6eaaa372f498c83d69665e2adc, type: 3}
      propertyPath: m_LocalPosition.z
      value: 0
      objectReference: {fileID: 0}
    - target: {fileID: 4632753293960446, guid: ed022c6eaaa372f498c83d69665e2adc, type: 3}
      propertyPath: m_LocalRotation.w
      value: 1
      objectReference: {fileID: 0}
    - target: {fileID: 4632753293960446, guid: ed022c6eaaa372f498c83d69665e2adc, type: 3}
      propertyPath: m_LocalRotation.x
      value: 0
      objectReference: {fileID: 0}
    - target: {fileID: 4632753293960446, guid: ed022c6eaaa372f498c83d69665e2adc, type: 3}
      propertyPath: m_LocalRotation.y
      value: 0
      objectReference: {fileID: 0}
    - target: {fileID: 4632753293960446, guid: ed022c6eaaa372f498c83d69665e2adc, type: 3}
      propertyPath: m_LocalRotation.z
      value: 0
      objectReference: {fileID: 0}
    - target: {fileID: 114049539065691888, guid: ed022c6eaaa372f498c83d69665e2adc, type: 3}
      propertyPath: m_Sprite
      value: 
      objectReference: {fileID: 21300000, guid: 2627ecd4648a7484daf4003dda68f27d, type: 3}
    - target: {fileID: 114415109990658320, guid: ed022c6eaaa372f498c83d69665e2adc, type: 3}
      propertyPath: m_Colors.m_SelectedColor.b
      value: 0.9843138
      objectReference: {fileID: 0}
    - target: {fileID: 114415109990658320, guid: ed022c6eaaa372f498c83d69665e2adc, type: 3}
      propertyPath: m_Colors.m_SelectedColor.g
      value: 0.4784314
      objectReference: {fileID: 0}
    - target: {fileID: 114415109990658320, guid: ed022c6eaaa372f498c83d69665e2adc, type: 3}
      propertyPath: m_Colors.m_SelectedColor.r
      value: 1
      objectReference: {fileID: 0}
    - target: {fileID: 114415109990658320, guid: ed022c6eaaa372f498c83d69665e2adc, type: 3}
      propertyPath: m_Colors.m_HighlightedColor.b
      value: 0.9843137
      objectReference: {fileID: 0}
    - target: {fileID: 114415109990658320, guid: ed022c6eaaa372f498c83d69665e2adc, type: 3}
      propertyPath: m_Colors.m_HighlightedColor.g
      value: 0.47843137
      objectReference: {fileID: 0}
    - target: {fileID: 114415109990658320, guid: ed022c6eaaa372f498c83d69665e2adc, type: 3}
      propertyPath: m_Colors.m_HighlightedColor.r
      value: 1
      objectReference: {fileID: 0}
    - target: {fileID: 114718852103185918, guid: ed022c6eaaa372f498c83d69665e2adc, type: 3}
      propertyPath: m_Sprite
      value: 
      objectReference: {fileID: 21300000, guid: 2627ecd4648a7484daf4003dda68f27d, type: 3}
    - target: {fileID: 114754865640368622, guid: ed022c6eaaa372f498c83d69665e2adc, type: 3}
      propertyPath: brightnessEffect
      value: 
      objectReference: {fileID: 980339799}
    - target: {fileID: 114781094372214286, guid: ed022c6eaaa372f498c83d69665e2adc, type: 3}
      propertyPath: m_Colors.m_SelectedColor.b
      value: 0.9843138
      objectReference: {fileID: 0}
    - target: {fileID: 114781094372214286, guid: ed022c6eaaa372f498c83d69665e2adc, type: 3}
      propertyPath: m_Colors.m_SelectedColor.g
      value: 0.4784314
      objectReference: {fileID: 0}
    - target: {fileID: 114781094372214286, guid: ed022c6eaaa372f498c83d69665e2adc, type: 3}
      propertyPath: m_Colors.m_SelectedColor.r
      value: 1
      objectReference: {fileID: 0}
    - target: {fileID: 114781094372214286, guid: ed022c6eaaa372f498c83d69665e2adc, type: 3}
      propertyPath: m_Colors.m_HighlightedColor.b
      value: 0.9843137
      objectReference: {fileID: 0}
    - target: {fileID: 114781094372214286, guid: ed022c6eaaa372f498c83d69665e2adc, type: 3}
      propertyPath: m_Colors.m_HighlightedColor.g
      value: 0.47843137
      objectReference: {fileID: 0}
    - target: {fileID: 114781094372214286, guid: ed022c6eaaa372f498c83d69665e2adc, type: 3}
      propertyPath: m_Colors.m_HighlightedColor.r
      value: 1
      objectReference: {fileID: 0}
    - target: {fileID: 114898506001689132, guid: ed022c6eaaa372f498c83d69665e2adc, type: 3}
      propertyPath: m_Sprite
      value: 
      objectReference: {fileID: 21300000, guid: dea1992174bf33543abfdf46d9334b56, type: 3}
    - target: {fileID: 224022279099792788, guid: ed022c6eaaa372f498c83d69665e2adc, type: 3}
      propertyPath: m_AnchoredPosition.y
      value: -400
      objectReference: {fileID: 0}
    - target: {fileID: 224142275000443450, guid: ed022c6eaaa372f498c83d69665e2adc, type: 3}
      propertyPath: m_SizeDelta.x
      value: 300
      objectReference: {fileID: 0}
    - target: {fileID: 224142275000443450, guid: ed022c6eaaa372f498c83d69665e2adc, type: 3}
      propertyPath: m_SizeDelta.y
      value: 98
      objectReference: {fileID: 0}
    - target: {fileID: 224142275000443450, guid: ed022c6eaaa372f498c83d69665e2adc, type: 3}
      propertyPath: m_AnchoredPosition.x
      value: 700
      objectReference: {fileID: 0}
    - target: {fileID: 224142275000443450, guid: ed022c6eaaa372f498c83d69665e2adc, type: 3}
      propertyPath: m_AnchoredPosition.y
      value: 380
      objectReference: {fileID: 0}
    - target: {fileID: 224199329495961350, guid: ed022c6eaaa372f498c83d69665e2adc, type: 3}
      propertyPath: m_SizeDelta.x
      value: 300
      objectReference: {fileID: 0}
    - target: {fileID: 224199329495961350, guid: ed022c6eaaa372f498c83d69665e2adc, type: 3}
      propertyPath: m_SizeDelta.y
      value: 206
      objectReference: {fileID: 0}
    - target: {fileID: 224459195878032886, guid: ed022c6eaaa372f498c83d69665e2adc, type: 3}
      propertyPath: m_SizeDelta.x
      value: 300
      objectReference: {fileID: 0}
    - target: {fileID: 224459195878032886, guid: ed022c6eaaa372f498c83d69665e2adc, type: 3}
      propertyPath: m_SizeDelta.y
      value: 206
      objectReference: {fileID: 0}
    - target: {fileID: 224506025707688218, guid: ed022c6eaaa372f498c83d69665e2adc, type: 3}
      propertyPath: m_AnchoredPosition.y
      value: -500
      objectReference: {fileID: 0}
    - target: {fileID: 224568192995839698, guid: ed022c6eaaa372f498c83d69665e2adc, type: 3}
      propertyPath: m_AnchoredPosition.y
      value: -400
      objectReference: {fileID: 0}
    - target: {fileID: 224684519152469736, guid: ed022c6eaaa372f498c83d69665e2adc, type: 3}
      propertyPath: m_AnchoredPosition.y
      value: -500
      objectReference: {fileID: 0}
    - target: {fileID: 224873052009386232, guid: ed022c6eaaa372f498c83d69665e2adc, type: 3}
      propertyPath: m_AnchoredPosition.y
      value: -700
      objectReference: {fileID: 0}
    - target: {fileID: 224920938803551132, guid: ed022c6eaaa372f498c83d69665e2adc, type: 3}
      propertyPath: m_AnchoredPosition.y
      value: -500
      objectReference: {fileID: 0}
    m_RemovedComponents: []
  m_SourcePrefab: {fileID: 100100000, guid: ed022c6eaaa372f498c83d69665e2adc, type: 3}
--- !u!114 &384942025 stripped
MonoBehaviour:
  m_CorrespondingSourceObject: {fileID: 114754865640368622, guid: ed022c6eaaa372f498c83d69665e2adc, type: 3}
  m_PrefabInstance: {fileID: 319190451}
  m_PrefabAsset: {fileID: 0}
  m_GameObject: {fileID: 0}
  m_Enabled: 1
  m_EditorHideFlags: 0
  m_Script: {fileID: 11500000, guid: 9bcbdb54739de444ab8e0dc4b527da94, type: 3}
  m_Name: 
  m_EditorClassIdentifier: 
--- !u!1 &980339790
GameObject:
  m_ObjectHideFlags: 0
  m_CorrespondingSourceObject: {fileID: 100008, guid: eb149114cc59fcc458e0a8acbd3217c2, type: 2}
  m_PrefabInstance: {fileID: 0}
  m_PrefabAsset: {fileID: 0}
  serializedVersion: 6
  m_Component:
  - component: {fileID: 980339791}
  - component: {fileID: 980339796}
  - component: {fileID: 980339794}
  - component: {fileID: 980339792}
  - component: {fileID: 980339799}
  m_Layer: 0
  m_Name: Main Camera
  m_TagString: MainCamera
  m_Icon: {fileID: 0}
  m_NavMeshLayer: 0
  m_StaticEditorFlags: 0
  m_IsActive: 1
--- !u!4 &980339791
Transform:
  m_ObjectHideFlags: 0
  m_CorrespondingSourceObject: {fileID: 400008, guid: eb149114cc59fcc458e0a8acbd3217c2, type: 2}
  m_PrefabInstance: {fileID: 0}
  m_PrefabAsset: {fileID: 0}
  m_GameObject: {fileID: 980339790}
  m_LocalRotation: {x: 0, y: 0.9396849, z: 0, w: -0.34204143}
  m_LocalPosition: {x: 989.15265, y: 18.080662, z: 127.944275}
  m_LocalScale: {x: 1, y: 1, z: 1}
  m_Children: []
  m_Father: {fileID: 0}
  m_RootOrder: 0
  m_LocalEulerAnglesHint: {x: 0, y: 0, z: 0}
--- !u!81 &980339792
AudioListener:
  m_ObjectHideFlags: 0
  m_CorrespondingSourceObject: {fileID: 8100000, guid: eb149114cc59fcc458e0a8acbd3217c2, type: 2}
  m_PrefabInstance: {fileID: 0}
  m_PrefabAsset: {fileID: 0}
  m_GameObject: {fileID: 980339790}
  m_Enabled: 1
--- !u!124 &980339794
Behaviour:
  m_ObjectHideFlags: 0
  m_CorrespondingSourceObject: {fileID: 12400000, guid: eb149114cc59fcc458e0a8acbd3217c2, type: 2}
  m_PrefabInstance: {fileID: 0}
  m_PrefabAsset: {fileID: 0}
  m_GameObject: {fileID: 980339790}
  m_Enabled: 1
--- !u!20 &980339796
Camera:
  m_ObjectHideFlags: 0
  m_CorrespondingSourceObject: {fileID: 2000000, guid: eb149114cc59fcc458e0a8acbd3217c2, type: 2}
  m_PrefabInstance: {fileID: 0}
  m_PrefabAsset: {fileID: 0}
  m_GameObject: {fileID: 980339790}
  m_Enabled: 1
  serializedVersion: 2
  m_ClearFlags: 1
  m_BackGroundColor: {r: 0, g: 0, b: 0, a: 1}
  m_projectionMatrixMode: 1
  m_GateFitMode: 2
  m_FOVAxisMode: 0
  m_SensorSize: {x: 36, y: 24}
  m_LensShift: {x: 0, y: 0}
  m_FocalLength: 50
  m_NormalizedViewPortRect:
    serializedVersion: 2
    x: 0
    y: 0
    width: 1
    height: 1
  near clip plane: 0.3
  far clip plane: 280
  field of view: 60
  orthographic: 0
  orthographic size: 100
  m_Depth: 0
  m_CullingMask:
    serializedVersion: 2
    m_Bits: 4294967295
  m_RenderingPath: -1
  m_TargetTexture: {fileID: 0}
  m_TargetDisplay: 0
  m_TargetEye: 3
  m_HDR: 1
  m_AllowMSAA: 0
  m_AllowDynamicResolution: 0
  m_ForceIntoRT: 1
  m_OcclusionCulling: 1
  m_StereoConvergence: 10
  m_StereoSeparation: 0.022
--- !u!114 &980339799
MonoBehaviour:
  m_ObjectHideFlags: 0
  m_CorrespondingSourceObject: {fileID: 0}
  m_PrefabInstance: {fileID: 0}
  m_PrefabAsset: {fileID: 0}
  m_GameObject: {fileID: 980339790}
  m_Enabled: 1
  m_EditorHideFlags: 0
  m_Script: {fileID: 11500000, guid: 02050cea5566fca4098e3baab5c98800, type: 3}
  m_Name: 
  m_EditorClassIdentifier: 
  shaderDerp: {fileID: 4800000, guid: aa28d8b840c1bcb4297c6dea68c63a36, type: 3}
  brightness: 1
--- !u!1001 &1100987976
PrefabInstance:
  m_ObjectHideFlags: 0
  serializedVersion: 2
  m_Modification:
    m_TransformParent: {fileID: 0}
    m_Modifications:
    - target: {fileID: 4084184335491190, guid: cc18238686906234bb678b403db8d8fd, type: 3}
      propertyPath: m_RootOrder
      value: 2
      objectReference: {fileID: 0}
    - target: {fileID: 4084184335491190, guid: cc18238686906234bb678b403db8d8fd, type: 3}
      propertyPath: m_LocalPosition.x
      value: 0
      objectReference: {fileID: 0}
    - target: {fileID: 4084184335491190, guid: cc18238686906234bb678b403db8d8fd, type: 3}
      propertyPath: m_LocalPosition.y
      value: 0
      objectReference: {fileID: 0}
    - target: {fileID: 4084184335491190, guid: cc18238686906234bb678b403db8d8fd, type: 3}
      propertyPath: m_LocalPosition.z
      value: 0
      objectReference: {fileID: 0}
    - target: {fileID: 4084184335491190, guid: cc18238686906234bb678b403db8d8fd, type: 3}
      propertyPath: m_LocalRotation.w
      value: 1
      objectReference: {fileID: 0}
    - target: {fileID: 4084184335491190, guid: cc18238686906234bb678b403db8d8fd, type: 3}
      propertyPath: m_LocalRotation.x
      value: 0
      objectReference: {fileID: 0}
    - target: {fileID: 4084184335491190, guid: cc18238686906234bb678b403db8d8fd, type: 3}
      propertyPath: m_LocalRotation.y
      value: 0
      objectReference: {fileID: 0}
    - target: {fileID: 4084184335491190, guid: cc18238686906234bb678b403db8d8fd, type: 3}
      propertyPath: m_LocalRotation.z
      value: 0
      objectReference: {fileID: 0}
    - target: {fileID: 114325646035853880, guid: cc18238686906234bb678b403db8d8fd, type: 3}
      propertyPath: volumeText
      value: 
      objectReference: {fileID: 1301471602}
    - target: {fileID: 114325646035853880, guid: cc18238686906234bb678b403db8d8fd, type: 3}
      propertyPath: volumeSlider
      value: 
      objectReference: {fileID: 165323091}
    - target: {fileID: 114325646035853880, guid: cc18238686906234bb678b403db8d8fd, type: 3}
      propertyPath: invertYToggle
      value: 
      objectReference: {fileID: 1812568760}
    - target: {fileID: 114325646035853880, guid: cc18238686906234bb678b403db8d8fd, type: 3}
      propertyPath: brightnessText
      value: 
      objectReference: {fileID: 1248829814}
    - target: {fileID: 114325646035853880, guid: cc18238686906234bb678b403db8d8fd, type: 3}
      propertyPath: controllerText
      value: 
      objectReference: {fileID: 21591210}
    - target: {fileID: 114325646035853880, guid: cc18238686906234bb678b403db8d8fd, type: 3}
      propertyPath: menuController
      value: 
      objectReference: {fileID: 384942025}
    - target: {fileID: 114325646035853880, guid: cc18238686906234bb678b403db8d8fd, type: 3}
      propertyPath: brightnessEffect
      value: 
      objectReference: {fileID: 980339799}
    - target: {fileID: 114325646035853880, guid: cc18238686906234bb678b403db8d8fd, type: 3}
      propertyPath: brightnessSlider
      value: 
      objectReference: {fileID: 1686998484}
    - target: {fileID: 114325646035853880, guid: cc18238686906234bb678b403db8d8fd, type: 3}
      propertyPath: controllerSlider
      value: 
      objectReference: {fileID: 1686998483}
    m_RemovedComponents: []
  m_SourcePrefab: {fileID: 100100000, guid: cc18238686906234bb678b403db8d8fd, type: 3}
--- !u!114 &1248829814 stripped
MonoBehaviour:
  m_CorrespondingSourceObject: {fileID: 114954420297510558, guid: ed022c6eaaa372f498c83d69665e2adc, type: 3}
  m_PrefabInstance: {fileID: 319190451}
  m_PrefabAsset: {fileID: 0}
  m_GameObject: {fileID: 0}
  m_Enabled: 1
  m_EditorHideFlags: 0
  m_Script: {fileID: 11500000, guid: 5f7201a12d95ffc409449d95f23cf332, type: 3}
  m_Name: 
  m_EditorClassIdentifier: 
--- !u!114 &1301471602 stripped
MonoBehaviour:
  m_CorrespondingSourceObject: {fileID: 114662438807354912, guid: ed022c6eaaa372f498c83d69665e2adc, type: 3}
  m_PrefabInstance: {fileID: 319190451}
  m_PrefabAsset: {fileID: 0}
  m_GameObject: {fileID: 0}
  m_Enabled: 1
  m_EditorHideFlags: 0
  m_Script: {fileID: 11500000, guid: 5f7201a12d95ffc409449d95f23cf332, type: 3}
  m_Name: 
  m_EditorClassIdentifier: 
--- !u!114 &1686998483 stripped
MonoBehaviour:
  m_CorrespondingSourceObject: {fileID: 114866046668010596, guid: ed022c6eaaa372f498c83d69665e2adc, type: 3}
  m_PrefabInstance: {fileID: 319190451}
  m_PrefabAsset: {fileID: 0}
  m_GameObject: {fileID: 0}
  m_Enabled: 1
  m_EditorHideFlags: 0
  m_Script: {fileID: 11500000, guid: 67db9e8f0e2ae9c40bc1e2b64352a6b4, type: 3}
  m_Name: 
  m_EditorClassIdentifier: 
--- !u!114 &1686998484 stripped
MonoBehaviour:
  m_CorrespondingSourceObject: {fileID: 114414691622253428, guid: ed022c6eaaa372f498c83d69665e2adc, type: 3}
  m_PrefabInstance: {fileID: 319190451}
  m_PrefabAsset: {fileID: 0}
  m_GameObject: {fileID: 0}
  m_Enabled: 1
  m_EditorHideFlags: 0
  m_Script: {fileID: 11500000, guid: 67db9e8f0e2ae9c40bc1e2b64352a6b4, type: 3}
  m_Name: 
  m_EditorClassIdentifier: 
--- !u!1 &1740199877
GameObject:
  m_ObjectHideFlags: 0
  m_CorrespondingSourceObject: {fileID: 0}
  m_PrefabInstance: {fileID: 0}
  m_PrefabAsset: {fileID: 0}
  serializedVersion: 6
  m_Component:
  - component: {fileID: 1740199880}
  - component: {fileID: 1740199879}
  - component: {fileID: 1740199878}
  m_Layer: 0
  m_Name: EventSystem
  m_TagString: Untagged
  m_Icon: {fileID: 0}
  m_NavMeshLayer: 0
  m_StaticEditorFlags: 0
  m_IsActive: 1
--- !u!114 &1740199878
MonoBehaviour:
  m_ObjectHideFlags: 0
  m_CorrespondingSourceObject: {fileID: 0}
  m_PrefabInstance: {fileID: 0}
  m_PrefabAsset: {fileID: 0}
  m_GameObject: {fileID: 1740199877}
  m_Enabled: 1
  m_EditorHideFlags: 0
  m_Script: {fileID: 11500000, guid: 4f231c4fb786f3946a6b90b886c48677, type: 3}
  m_Name: 
  m_EditorClassIdentifier: 
  m_HorizontalAxis: Horizontal
  m_VerticalAxis: Vertical
  m_SubmitButton: Submit
  m_CancelButton: Cancel
  m_InputActionsPerSecond: 10
  m_RepeatDelay: 0.5
  m_ForceModuleActive: 0
--- !u!114 &1740199879
MonoBehaviour:
  m_ObjectHideFlags: 0
  m_CorrespondingSourceObject: {fileID: 0}
  m_PrefabInstance: {fileID: 0}
  m_PrefabAsset: {fileID: 0}
  m_GameObject: {fileID: 1740199877}
  m_Enabled: 1
  m_EditorHideFlags: 0
  m_Script: {fileID: 11500000, guid: 76c392e42b5098c458856cdf6ecaaaa1, type: 3}
  m_Name: 
  m_EditorClassIdentifier: 
  m_FirstSelected: {fileID: 0}
  m_sendNavigationEvents: 1
  m_DragThreshold: 5
--- !u!4 &1740199880
Transform:
  m_ObjectHideFlags: 0
  m_CorrespondingSourceObject: {fileID: 0}
  m_PrefabInstance: {fileID: 0}
  m_PrefabAsset: {fileID: 0}
  m_GameObject: {fileID: 1740199877}
  m_LocalRotation: {x: -0, y: -0, z: -0, w: 1}
  m_LocalPosition: {x: 0, y: 0, z: 0}
  m_LocalScale: {x: 1, y: 1, z: 1}
  m_Children: []
  m_Father: {fileID: 0}
  m_RootOrder: 3
  m_LocalEulerAnglesHint: {x: 0, y: 0, z: 0}
--- !u!114 &1812568760 stripped
MonoBehaviour:
  m_CorrespondingSourceObject: {fileID: 114897183776236306, guid: ed022c6eaaa372f498c83d69665e2adc, type: 3}
  m_PrefabInstance: {fileID: 319190451}
  m_PrefabAsset: {fileID: 0}
  m_GameObject: {fileID: 0}
  m_Enabled: 1
  m_EditorHideFlags: 0
  m_Script: {fileID: 11500000, guid: 9085046f02f69544eb97fd06b6048fe2, type: 3}
  m_Name: 
  m_EditorClassIdentifier: 
